Verilog-145-234/VerilogBM-145-234.vcd
$date
	Tue Nov 07 22:46:26 2017
$end
$version
	Icarus Verilog
$end
$timescale
	1ps
$end
$scope module Verilog_145_234 $end
$var wire 16 ! reg7 [15:0] $end
$var wire 16 " reg4 [15:0] $end
$var wire 16 # reg3 [15:0] $end
$var wire 16 $ reg2 [15:0] $end
$var wire 16 % reg1 [15:0] $end
$var wire 16 & pc_out [15:0] $end
$var wire 16 ' alu_result [15:0] $end
$var reg 1 ( clk $end
$var reg 1 ) reset $end
$scope module uut $end
$var wire 16 * PC_jr [15:0] $end
$var wire 16 + alu_result [15:0] $end
$var wire 1 , beq_control $end
$var wire 1 ( clk $end
$var wire 16 - pc_out [15:0] $end
$var wire 1 ) reset $end
$var wire 1 . zero_flag $end
$var wire 16 / zero_ext_im [15:0] $end
$var wire 1 0 sign_or_zero $end
$var wire 16 1 sign_ext_im [15:0] $end
$var wire 3 2 reg_write_dest [2:0] $end
$var wire 16 3 reg_write_data [15:0] $end
$var wire 1 4 reg_write $end
$var wire 16 5 reg_read_data_2 [15:0] $end
$var wire 16 6 reg_read_data_1 [15:0] $end
$var wire 3 7 reg_read_addr_2 [2:0] $end
$var wire 3 8 reg_read_addr_1 [2:0] $end
$var wire 2 9 reg_dst [1:0] $end
$var wire 16 : reg7 [15:0] $end
$var wire 16 ; reg4 [15:0] $end
$var wire 16 < reg3 [15:0] $end
$var wire 16 = reg2 [15:0] $end
$var wire 16 > reg1 [15:0] $end
$var wire 16 ? read_data2 [15:0] $end
$var wire 16 @ pc_next [15:0] $end
$var wire 16 A pc2 [15:0] $end
$var wire 16 B no_sign_ext [15:0] $end
$var wire 1 C mem_write $end
$var wire 2 D mem_to_reg [1:0] $end
$var wire 16 E mem_read_data [15:0] $end
$var wire 1 F mem_read $end
$var wire 15 G jump_shift_1 [14:0] $end
$var wire 1 H jump $end
$var wire 16 I instr [15:0] $end
$var wire 16 J imm_ext [15:0] $end
$var wire 16 K im_shift_1 [15:0] $end
$var wire 1 L branch $end
$var wire 1 M alu_src $end
$var wire 2 N alu_op [1:0] $end
$var wire 16 O PC_j [15:0] $end
$var wire 16 P PC_beq [15:0] $end
$var wire 16 Q PC_4beqj [15:0] $end
$var wire 16 R PC_4beq [15:0] $end
$var wire 1 S JRControl $end
$var wire 16 T ALU_out [15:0] $end
$var wire 3 U ALU_Control [2:0] $end
$var reg 16 V pc_current [15:0] $end
$scope module ALU_Control_unit $end
$var wire 4 W Function [3:0] $end
$var wire 2 X ALUOp [1:0] $end
$var wire 6 Y ALUControlIn [5:0] $end
$var reg 3 Z ALU_Control [2:0] $end
$upscope $end
$scope module JRControl_unit $end
$var wire 4 [ funct [3:0] $end
$var wire 2 \ alu_op [1:0] $end
$var wire 1 S JRControl $end
$upscope $end
$scope module alu_unit $end
$var wire 3 ] alu_control [2:0] $end
$var wire 16 ^ b [15:0] $end
$var wire 1 . zero $end
$var wire 16 _ a [15:0] $end
$var reg 16 ` result [15:0] $end
$upscope $end
$scope module control_unit $end
$var wire 3 a opcode [2:0] $end
$var wire 1 ) reset $end
$var reg 2 b alu_op [1:0] $end
$var reg 1 M alu_src $end
$var reg 1 L branch $end
$var reg 1 H jump $end
$var reg 1 F mem_read $end
$var reg 2 c mem_to_reg [1:0] $end
$var reg 1 C mem_write $end
$var reg 2 d reg_dst [1:0] $end
$var reg 1 4 reg_write $end
$var reg 1 0 sign_or_zero $end
$upscope $end
$scope module datamem $end
$var wire 1 ( clk $end
$var wire 16 e mem_access_addr [15:0] $end
$var wire 1 F mem_read $end
$var wire 1 C mem_write_en $end
$var wire 8 f ram_addr [7:0] $end
$var wire 16 g mem_write_data [15:0] $end
$var wire 16 h mem_read_data [15:0] $end
$var integer 32 i i [31:0] $end
$upscope $end
$scope module instrucion_memory $end
$var wire 16 j pc [15:0] $end
$var wire 4 k rom_addr [3:0] $end
$var wire 16 l instruction [15:0] $end
$upscope $end
$scope module reg_file $end
$var wire 1 ( clk $end
$var wire 3 m reg_read_addr_1 [2:0] $end
$var wire 3 n reg_read_addr_2 [2:0] $end
$var wire 16 o reg_write_data [15:0] $end
$var wire 3 p reg_write_dest [2:0] $end
$var wire 1 4 reg_write_en $end
$var wire 1 ) rst $end
$var wire 16 q reg_read_data_2 [15:0] $end
$var wire 16 r reg_read_data_1 [15:0] $end
$var reg 16 s reg1 [15:0] $end
$var reg 16 t reg2 [15:0] $end
$var reg 16 u reg3 [15:0] $end
$var reg 16 v reg4 [15:0] $end
$var reg 16 w reg7 [15:0] $end
$upscope $end
$upscope $end
$upscope $end
$enddefinitions $end
#0
$dumpvars
bx w
bx v
bx u
bx t
bx s
b0 r
b0 q
b1 p
b0 o
b1 n
b1 m
b1110010010000000 l
b0 k
b0 j
b100000000 i
b0 h
b0 g
b0 f
b0 e
b0 d
b0 c
b0 b
b111 a
b0 `
b0 _
b0 ^
b0 ]
b0 \
b0 [
b0 Z
b0 Y
b0 X
b0 W
b0 V
b0 U
b0 T
0S
b10 R
b10 Q
b10 P
b100100100000000 O
b0 N
0M
0L
b0 K
b0 J
b1110010010000000 I
0H
b100100100000000 G
0F
b0 E
b0 D
0C
b0 B
b10 A
b10 @
b0 ?
bx >
bx =
bx <
bx ;
bx :
b0 9
b1 8
b1 7
b0 6
b0 5
04
b0 3
b1 2
b0 1
10
b0 /
1.
b0 -
0,
b0 +
b0 *
1)
0(
b0 '
b0 &
bx %
bx $
bx #
bx "
bx !
$end
#10000
b0 !
b0 :
b0 w
b0 "
b0 ;
b0 v
b0 #
b0 <
b0 u
b0 $
b0 =
b0 t
b0 %
b0 >
b0 s
1(
#20000
0(
#30000
1(
#40000
0(
#50000
1(
#60000
0(
#70000
1(
#80000
0(
#90000
1(
#100000
14
1M
b110000 Y
b11 N
b11 X
b11 \
b11 b
0(
0)
#110000
b1010 3
b1010 o
0.
b101 f
b1010 '
b1010 +
b1010 T
b1010 `
b1010 e
b1111111111101100 B
b1010 ?
b1010 ^
b10100 K
b10 2
b10 p
b1010 J
b100 @
b111010 Y
b1010 W
b1010 [
b1010 /
b1010 1
b10 7
b10 n
b10 8
b10 m
b101001000010100 O
b101001000010100 G
b100 Q
b1110100100001010 I
b1110100100001010 l
b11000 P
b100 R
b1 k
b100 A
b10 &
b10 -
b10 V
b10 j
1(
#120000
0(
#130000
1.
b0 B
b0 ?
b0 ^
b0 K
b11 2
b11 p
b0 J
b0 3
b0 o
b110 @
b110000 Y
b0 W
b0 [
b0 /
b0 1
b11 7
b11 n
b11 8
b11 m
b101101100000000 O
b101101100000000 G
b0 f
b110 Q
b1110110110000000 I
b1110110110000000 l
b0 '
b0 +
b0 T
b0 `
b0 e
b110 P
b110 R
b10 k
b0 *
b0 6
b0 _
b0 r
b0 5
b0 g
b0 q
b110 A
b100 &
b100 -
b100 V
b100 j
1(
#140000
0(
#150000
b1 3
b1 o
0.
b1 '
b1 +
b1 T
b1 `
b1 e
b1111111111111110 B
b1 ?
b1 ^
b10 K
b100 2
b100 p
b1 J
b1000 @
b110001 Y
b1 W
b1 [
b1 /
b1 1
b100 7
b100 n
b100 8
b100 m
b110010000000010 O
b110010000000010 G
b1000 Q
b1111001000000001 I
b1111001000000001 l
b1010 P
b1000 R
b11 k
b1000 A
b110 &
b110 -
b110 V
b110 j
b1010 $
b1010 =
b1010 t
1(
#160000
0(
#170000
b1111111111110110 B
b0 ?
b0 ^
b1010 K
b11 2
b11 p
b1 U
b1 Z
b1 ]
b101 J
04
0M
1L
b1 N
b1 X
b1 \
b1 b
b1010 3
b1010 o
b1010 @
b10101 Y
b101 W
b101 [
b101 /
b101 1
b11 7
b11 n
b10 8
b10 m
b110 a
b1001100001010 O
b1001100001010 G
b101 f
b1010 Q
b1100100110000101 I
b1100100110000101 l
b1010 '
b1010 +
b1010 T
b1010 `
b1010 e
b10100 P
b1010 R
b100 k
b1010 *
b1010 6
b1010 _
b1010 r
b0 5
b0 g
b0 q
b1010 A
b1000 &
b1000 -
b1000 V
b1000 j
1(
#180000
0(
#190000
b1010 3
b1010 o
b1111111111100000 B
0.
b101 f
b100000 K
b1010 ?
b1010 ^
b1010 '
b1010 +
b1010 T
b1010 `
b1010 e
b1 2
b1 p
b0 U
b0 Z
b0 ]
b10000 J
b1010 5
b1010 g
b1010 q
b0 *
b0 6
b0 _
b0 r
14
0L
b0 N
b0 X
b0 \
b0 b
b1 9
b1 d
b1100 @
b0 Y
b0 W
b0 [
b10000 /
b10000 1
b10 7
b10 n
b1 8
b1 m
b0 a
b101000100000 O
b101000100000 G
b1100 Q
b10100010000 I
b10100010000 l
b101100 P
b1100 R
b101 k
b1100 A
b1010 &
b1010 -
b1010 V
b1010 j
b1 "
b1 ;
b1 v
1(
#200000
0(
#210000
b1111111110111110 B
b1000010 K
b1 ?
b1 ^
b10 2
b10 p
b1 U
b1 Z
b1 ]
b100001 J
b1 5
b1 g
b1 q
b1001 3
b1001 o
b1110 @
b1 Y
b1 W
b1 [
b100001 /
b100001 1
b100 7
b100 n
b10 8
b10 m
b1010001000010 O
b1010001000010 G
b100 f
b1110 Q
b101000100001 I
b101000100001 l
b1001 '
b1001 +
b1001 T
b1001 `
b1001 e
b1010000 P
b1110 R
b110 k
b1010 *
b1010 6
b1010 _
b1010 r
b1110 A
b1100 &
b1100 -
b1100 V
b1100 j
1(
#220000
0(
#230000
1.
b1111111111111000 B
b0 f
b1000 K
b0 ?
b0 ^
b0 2
b0 p
b0 3
b0 o
b100 U
b100 Z
b100 ]
b100 J
b0 5
b0 g
b0 q
04
1H
b0 9
b0 d
b1000 @
b100 Y
b100 W
b100 [
b100 /
b100 1
b0 7
b0 n
b0 8
b0 m
b10 a
b1000 O
b1000 G
b0 '
b0 +
b0 T
b0 `
b0 e
b1000 Q
b100000000000100 I
b100000000000100 l
b0 *
b0 6
b0 _
b0 r
b11000 P
b10000 R
b111 k
b10000 A
b1110 &
b1110 -
b1110 V
b1110 j
b1010 %
b1010 >
b1010 s
1(
#240000
0(
#250000
b1001 3
b1001 o
b1111111111110110 B
0.
b100 f
b1010 K
b1001 '
b1001 +
b1001 T
b1001 `
b1001 e
b11 2
b11 p
0,
b1010 @
b1 U
b1 Z
b1 ]
b101 J
b1001 *
b1001 6
b1001 _
b1001 r
1L
0H
b1 N
b1 X
b1 \
b1 b
b1010 Q
b10101 Y
b101 W
b101 [
b101 /
b101 1
b11 7
b11 n
b10 8
b10 m
b110 a
b1001100001010 O
b1001100001010 G
b1100100110000101 I
b1100100110000101 l
b10100 P
b1010 R
b100 k
b1010 A
b1000 &
b1000 -
b1000 V
b1000 j
b1001 $
b1001 =
b1001 t
1(
#260000
0(
#270000
b10011 3
b10011 o
b1111111111100000 B
b1001 f
b100000 K
b1001 ?
b1001 ^
b10011 '
b10011 +
b10011 T
b10011 `
b10011 e
b1 2
b1 p
b0 U
b0 Z
b0 ]
b10000 J
b1001 5
b1001 g
b1001 q
b1010 *
b1010 6
b1010 _
b1010 r
14
0L
b0 N
b0 X
b0 \
b0 b
b1 9
b1 d
b1100 @
b0 Y
b0 W
b0 [
b10000 /
b10000 1
b10 7
b10 n
b1 8
b1 m
b0 a
b101000100000 O
b101000100000 G
b1100 Q
b10100010000 I
b10100010000 l
b101100 P
b1100 R
b101 k
b1100 A
b1010 &
b1010 -
b1010 V
b1010 j
1(
#280000
0(
#290000
b1111111110111110 B
0.
b1000010 K
b1 ?
b1 ^
b10 2
b10 p
b1 U
b1 Z
b1 ]
b100001 J
b1 5
b1 g
b1 q
b1000 3
b1000 o
b1110 @
b1 Y
b1 W
b1 [
b100001 /
b100001 1
b100 7
b100 n
b10 8
b10 m
b1010001000010 O
b1010001000010 G
b100 f
b1110 Q
b101000100001 I
b101000100001 l
b1000 '
b1000 +
b1000 T
b1000 `
b1000 e
b1010000 P
b1110 R
b110 k
b1001 *
b1001 6
b1001 _
b1001 r
b1110 A
b1100 &
b1100 -
b1100 V
b1100 j
1(
#300000
0(
#310000
1.
b1111111111111000 B
b1000 K
b0 ?
b0 ^
b0 2
b0 p
b0 3
b0 o
b100 U
b100 Z
b100 ]
b100 J
b0 5
b0 g
b0 q
04
1H
b0 9
b0 d
b0 f
b1000 @
b100 Y
b100 W
b100 [
b100 /
b100 1
b0 7
b0 n
b0 8
b0 m
b10 a
b1000 O
b1000 G
b0 '
b0 +
b0 T
b0 `
b0 e
b1000 Q
b100000000000100 I
b100000000000100 l
b0 *
b0 6
b0 _
b0 r
b11000 P
b10000 R
b111 k
b10000 A
b1110 &
b1110 -
b1110 V
b1110 j
b10011 %
b10011 >
b10011 s
1(
#320000
0(
#330000
b1000 3
b1000 o
b1111111111110110 B
0.
b100 f
b1010 K
b1000 '
b1000 +
b1000 T
b1000 `
b1000 e
b11 2
b11 p
0,
b1010 @
b1 U
b1 Z
b1 ]
b101 J
b1000 *
b1000 6
b1000 _
b1000 r
1L
0H
b1 N
b1 X
b1 \
b1 b
b1010 Q
b10101 Y
b101 W
b101 [
b101 /
b101 1
b11 7
b11 n
b10 8
b10 m
b110 a
b1001100001010 O
b1001100001010 G
b1100100110000101 I
b1100100110000101 l
b10100 P
b1010 R
b100 k
b1010 A
b1000 &
b1000 -
b1000 V
b1000 j
b1000 $
b1000 =
b1000 t
1(
#340000
0(
#350000
b11011 3
b11011 o
b1111111111100000 B
b1101 f
b100000 K
b1000 ?
b1000 ^
b11011 '
b11011 +
b11011 T
b11011 `
b11011 e
b1 2
b1 p
b0 U
b0 Z
b0 ]
b10000 J
b1000 5
b1000 g
b1000 q
b10011 *
b10011 6
b10011 _
b10011 r
14
0L
b0 N
b0 X
b0 \
b0 b
b1 9
b1 d
b1100 @
b0 Y
b0 W
b0 [
b10000 /
b10000 1
b10 7
b10 n
b1 8
b1 m
b0 a
b101000100000 O
b101000100000 G
b1100 Q
b10100010000 I
b10100010000 l
b101100 P
b1100 R
b101 k
b1100 A
b1010 &
b1010 -
b1010 V
b1010 j
1(
#360000
0(
#370000
b1111111110111110 B
0.
b1000010 K
b1 ?
b1 ^
b10 2
b10 p
b1 U
b1 Z
b1 ]
b100001 J
b1 5
b1 g
b1 q
b111 3
b111 o
b1110 @
b1 Y
b1 W
b1 [
b100001 /
b100001 1
b100 7
b100 n
b10 8
b10 m
b1010001000010 O
b1010001000010 G
b11 f
b1110 Q
b101000100001 I
b101000100001 l
b111 '
b111 +
b111 T
b111 `
b111 e
b1010000 P
b1110 R
b110 k
b1000 *
b1000 6
b1000 _
b1000 r
b1110 A
b1100 &
b1100 -
b1100 V
b1100 j
1(
#380000
0(
#390000
1.
b1111111111111000 B
b0 f
b1000 K
b0 ?
b0 ^
b0 2
b0 p
b0 3
b0 o
b100 U
b100 Z
b100 ]
b100 J
b0 5
b0 g
b0 q
04
1H
b0 9
b0 d
b1000 @
b100 Y
b100 W
b100 [
b100 /
b100 1
b0 7
b0 n
b0 8
b0 m
b10 a
b1000 O
b1000 G
b0 '
b0 +
b0 T
b0 `
b0 e
b1000 Q
b100000000000100 I
b100000000000100 l
b0 *
b0 6
b0 _
b0 r
b11000 P
b10000 R
b111 k
b10000 A
b1110 &
b1110 -
b1110 V
b1110 j
b11011 %
b11011 >
b11011 s
1(
#400000
0(
#410000
b111 3
b111 o
b1111111111110110 B
0.
b11 f
b1010 K
b111 '
b111 +
b111 T
b111 `
b111 e
b11 2
b11 p
0,
b1010 @
b1 U
b1 Z
b1 ]
b101 J
b111 *
b111 6
b111 _
b111 r
1L
0H
b1 N
b1 X
b1 \
b1 b
b1010 Q
b10101 Y
b101 W
b101 [
b101 /
b101 1
b11 7
b11 n
b10 8
b10 m
b110 a
b1001100001010 O
b1001100001010 G
b1100100110000101 I
b1100100110000101 l
b10100 P
b1010 R
b100 k
b1010 A
b1000 &
b1000 -
b1000 V
b1000 j
b111 $
b111 =
b111 t
1(
#420000
0(
#430000
b100010 3
b100010 o
b1111111111100000 B
b10001 f
b100000 K
b111 ?
b111 ^
b100010 '
b100010 +
b100010 T
b100010 `
b100010 e
b1 2
b1 p
b0 U
b0 Z
b0 ]
b10000 J
b111 5
b111 g
b111 q
b11011 *
b11011 6
b11011 _
b11011 r
14
0L
b0 N
b0 X
b0 \
b0 b
b1 9
b1 d
b1100 @
b0 Y
b0 W
b0 [
b10000 /
b10000 1
b10 7
b10 n
b1 8
b1 m
b0 a
b101000100000 O
b101000100000 G
b1100 Q
b10100010000 I
b10100010000 l
b101100 P
b1100 R
b101 k
b1100 A
b1010 &
b1010 -
b1010 V
b1010 j
1(
#440000
0(
#450000
b1111111110111110 B
0.
b1000010 K
b1 ?
b1 ^
b10 2
b10 p
b1 U
b1 Z
b1 ]
b100001 J
b1 5
b1 g
b1 q
b110 3
b110 o
b1110 @
b1 Y
b1 W
b1 [
b100001 /
b100001 1
b100 7
b100 n
b10 8
b10 m
b1010001000010 O
b1010001000010 G
b11 f
b1110 Q
b101000100001 I
b101000100001 l
b110 '
b110 +
b110 T
b110 `
b110 e
b1010000 P
b1110 R
b110 k
b111 *
b111 6
b111 _
b111 r
b1110 A
b1100 &
b1100 -
b1100 V
b1100 j
1(
#460000
0(
#470000
1.
b1111111111111000 B
b1000 K
b0 ?
b0 ^
b0 2
b0 p
b0 3
b0 o
b100 U
b100 Z
b100 ]
b100 J
b0 5
b0 g
b0 q
04
1H
b0 9
b0 d
b0 f
b1000 @
b100 Y
b100 W
b100 [
b100 /
b100 1
b0 7
b0 n
b0 8
b0 m
b10 a
b1000 O
b1000 G
b0 '
b0 +
b0 T
b0 `
b0 e
b1000 Q
b100000000000100 I
b100000000000100 l
b0 *
b0 6
b0 _
b0 r
b11000 P
b10000 R
b111 k
b10000 A
b1110 &
b1110 -
b1110 V
b1110 j
b100010 %
b100010 >
b100010 s
1(
#480000
0(
#490000
b110 3
b110 o
b1111111111110110 B
0.
b11 f
b1010 K
b110 '
b110 +
b110 T
b110 `
b110 e
b11 2
b11 p
0,
b1010 @
b1 U
b1 Z
b1 ]
b101 J
b110 *
b110 6
b110 _
b110 r
1L
0H
b1 N
b1 X
b1 \
b1 b
b1010 Q
b10101 Y
b101 W
b101 [
b101 /
b101 1
b11 7
b11 n
b10 8
b10 m
b110 a
b1001100001010 O
b1001100001010 G
b1100100110000101 I
b1100100110000101 l
b10100 P
b1010 R
b100 k
b1010 A
b1000 &
b1000 -
b1000 V
b1000 j
b110 $
b110 =
b110 t
1(
#500000
0(
#510000
b101000 3
b101000 o
b1111111111100000 B
b10100 f
b100000 K
b110 ?
b110 ^
b101000 '
b101000 +
b101000 T
b101000 `
b101000 e
b1 2
b1 p
b0 U
b0 Z
b0 ]
b10000 J
b110 5
b110 g
b110 q
b100010 *
b100010 6
b100010 _
b100010 r
14
0L
b0 N
b0 X
b0 \
b0 b
b1 9
b1 d
b1100 @
b0 Y
b0 W
b0 [
b10000 /
b10000 1
b10 7
b10 n
b1 8
b1 m
b0 a
b101000100000 O
b101000100000 G
b1100 Q
b10100010000 I
b10100010000 l
b101100 P
b1100 R
b101 k
b1100 A
b1010 &
b1010 -
b1010 V
b1010 j
1(
#520000
0(
#530000
b1111111110111110 B
0.
b1000010 K
b1 ?
b1 ^
b10 2
b10 p
b1 U
b1 Z
b1 ]
b100001 J
b1 5
b1 g
b1 q
b101 3
b101 o
b1110 @
b1 Y
b1 W
b1 [
b100001 /
b100001 1
b100 7
b100 n
b10 8
b10 m
b1010001000010 O
b1010001000010 G
b10 f
b1110 Q
b101000100001 I
b101000100001 l
b101 '
b101 +
b101 T
b101 `
b101 e
b1010000 P
b1110 R
b110 k
b110 *
b110 6
b110 _
b110 r
b1110 A
b1100 &
b1100 -
b1100 V
b1100 j
1(
#540000
0(
#550000
1.
b1111111111111000 B
b0 f
b1000 K
b0 ?
b0 ^
b0 2
b0 p
b0 3
b0 o
b100 U
b100 Z
b100 ]
b100 J
b0 5
b0 g
b0 q
04
1H
b0 9
b0 d
b1000 @
b100 Y
b100 W
b100 [
b100 /
b100 1
b0 7
b0 n
b0 8
b0 m
b10 a
b1000 O
b1000 G
b0 '
b0 +
b0 T
b0 `
b0 e
b1000 Q
b100000000000100 I
b100000000000100 l
b0 *
b0 6
b0 _
b0 r
b11000 P
b10000 R
b111 k
b10000 A
b1110 &
b1110 -
b1110 V
b1110 j
b101000 %
b101000 >
b101000 s
1(
#560000
0(
#570000
b101 3
b101 o
b1111111111110110 B
0.
b10 f
b1010 K
b101 '
b101 +
b101 T
b101 `
b101 e
b11 2
b11 p
0,
b1010 @
b1 U
b1 Z
b1 ]
b101 J
b101 *
b101 6
b101 _
b101 r
1L
0H
b1 N
b1 X
b1 \
b1 b
b1010 Q
b10101 Y
b101 W
b101 [
b101 /
b101 1
b11 7
b11 n
b10 8
b10 m
b110 a
b1001100001010 O
b1001100001010 G
b1100100110000101 I
b1100100110000101 l
b10100 P
b1010 R
b100 k
b1010 A
b1000 &
b1000 -
b1000 V
b1000 j
b101 $
b101 =
b101 t
1(
#580000
0(
#590000
b101101 3
b101101 o
b1111111111100000 B
b10110 f
b100000 K
b101 ?
b101 ^
b101101 '
b101101 +
b101101 T
b101101 `
b101101 e
b1 2
b1 p
b0 U
b0 Z
b0 ]
b10000 J
b101 5
b101 g
b101 q
b101000 *
b101000 6
b101000 _
b101000 r
14
0L
b0 N
b0 X
b0 \
b0 b
b1 9
b1 d
b1100 @
b0 Y
b0 W
b0 [
b10000 /
b10000 1
b10 7
b10 n
b1 8
b1 m
b0 a
b101000100000 O
b101000100000 G
b1100 Q
b10100010000 I
b10100010000 l
b101100 P
b1100 R
b101 k
b1100 A
b1010 &
b1010 -
b1010 V
b1010 j
1(
#600000
0(
#610000
b1111111110111110 B
0.
b1000010 K
b1 ?
b1 ^
b10 2
b10 p
b1 U
b1 Z
b1 ]
b100001 J
b1 5
b1 g
b1 q
b100 3
b100 o
b1110 @
b1 Y
b1 W
b1 [
b100001 /
b100001 1
b100 7
b100 n
b10 8
b10 m
b1010001000010 O
b1010001000010 G
b10 f
b1110 Q
b101000100001 I
b101000100001 l
b100 '
b100 +
b100 T
b100 `
b100 e
b1010000 P
b1110 R
b110 k
b101 *
b101 6
b101 _
b101 r
b1110 A
b1100 &
b1100 -
b1100 V
b1100 j
1(
#620000
0(
#630000
1.
b1111111111111000 B
b1000 K
b0 ?
b0 ^
b0 2
b0 p
b0 3
b0 o
b100 U
b100 Z
b100 ]
b100 J
b0 5
b0 g
b0 q
04
1H
b0 9
b0 d
b0 f
b1000 @
b100 Y
b100 W
b100 [
b100 /
b100 1
b0 7
b0 n
b0 8
b0 m
b10 a
b1000 O
b1000 G
b0 '
b0 +
b0 T
b0 `
b0 e
b1000 Q
b100000000000100 I
b100000000000100 l
b0 *
b0 6
b0 _
b0 r
b11000 P
b10000 R
b111 k
b10000 A
b1110 &
b1110 -
b1110 V
b1110 j
b101101 %
b101101 >
b101101 s
1(
#640000
0(
#650000
b100 3
b100 o
b1111111111110110 B
0.
b10 f
b1010 K
b100 '
b100 +
b100 T
b100 `
b100 e
b11 2
b11 p
0,
b1010 @
b1 U
b1 Z
b1 ]
b101 J
b100 *
b100 6
b100 _
b100 r
1L
0H
b1 N
b1 X
b1 \
b1 b
b1010 Q
b10101 Y
b101 W
b101 [
b101 /
b101 1
b11 7
b11 n
b10 8
b10 m
b110 a
b1001100001010 O
b1001100001010 G
b1100100110000101 I
b1100100110000101 l
b10100 P
b1010 R
b100 k
b1010 A
b1000 &
b1000 -
b1000 V
b1000 j
b100 $
b100 =
b100 t
1(
#660000
0(
#670000
b110001 3
b110001 o
b1111111111100000 B
b11000 f
b100000 K
b100 ?
b100 ^
b110001 '
b110001 +
b110001 T
b110001 `
b110001 e
b1 2
b1 p
b0 U
b0 Z
b0 ]
b10000 J
b100 5
b100 g
b100 q
b101101 *
b101101 6
b101101 _
b101101 r
14
0L
b0 N
b0 X
b0 \
b0 b
b1 9
b1 d
b1100 @
b0 Y
b0 W
b0 [
b10000 /
b10000 1
b10 7
b10 n
b1 8
b1 m
b0 a
b101000100000 O
b101000100000 G
b1100 Q
b10100010000 I
b10100010000 l
b101100 P
b1100 R
b101 k
b1100 A
b1010 &
b1010 -
b1010 V
b1010 j
1(
#680000
0(
#690000
b1111111110111110 B
0.
b1000010 K
b1 ?
b1 ^
b10 2
b10 p
b1 U
b1 Z
b1 ]
b100001 J
b1 5
b1 g
b1 q
b11 3
b11 o
b1110 @
b1 Y
b1 W
b1 [
b100001 /
b100001 1
b100 7
b100 n
b10 8
b10 m
b1010001000010 O
b1010001000010 G
b1 f
b1110 Q
b101000100001 I
b101000100001 l
b11 '
b11 +
b11 T
b11 `
b11 e
b1010000 P
b1110 R
b110 k
b100 *
b100 6
b100 _
b100 r
b1110 A
b1100 &
b1100 -
b1100 V
b1100 j
1(
#700000
0(
#710000
1.
b1111111111111000 B
b0 f
b1000 K
b0 ?
b0 ^
b0 2
b0 p
b0 3
b0 o
b100 U
b100 Z
b100 ]
b100 J
b0 5
b0 g
b0 q
04
1H
b0 9
b0 d
b1000 @
b100 Y
b100 W
b100 [
b100 /
b100 1
b0 7
b0 n
b0 8
b0 m
b10 a
b1000 O
b1000 G
b0 '
b0 +
b0 T
b0 `
b0 e
b1000 Q
b100000000000100 I
b100000000000100 l
b0 *
b0 6
b0 _
b0 r
b11000 P
b10000 R
b111 k
b10000 A
b1110 &
b1110 -
b1110 V
b1110 j
b110001 %
b110001 >
b110001 s
1(
#720000
0(
#730000
b11 3
b11 o
b1111111111110110 B
0.
b1 f
b1010 K
b11 '
b11 +
b11 T
b11 `
b11 e
b11 2
b11 p
0,
b1010 @
b1 U
b1 Z
b1 ]
b101 J
b11 *
b11 6
b11 _
b11 r
1L
0H
b1 N
b1 X
b1 \
b1 b
b1010 Q
b10101 Y
b101 W
b101 [
b101 /
b101 1
b11 7
b11 n
b10 8
b10 m
b110 a
b1001100001010 O
b1001100001010 G
b1100100110000101 I
b1100100110000101 l
b10100 P
b1010 R
b100 k
b1010 A
b1000 &
b1000 -
b1000 V
b1000 j
b11 $
b11 =
b11 t
1(
#740000
0(
#750000
b110100 3
b110100 o
b1111111111100000 B
b11010 f
b100000 K
b11 ?
b11 ^
b110100 '
b110100 +
b110100 T
b110100 `
b110100 e
b1 2
b1 p
b0 U
b0 Z
b0 ]
b10000 J
b11 5
b11 g
b11 q
b110001 *
b110001 6
b110001 _
b110001 r
14
0L
b0 N
b0 X
b0 \
b0 b
b1 9
b1 d
b1100 @
b0 Y
b0 W
b0 [
b10000 /
b10000 1
b10 7
b10 n
b1 8
b1 m
b0 a
b101000100000 O
b101000100000 G
b1100 Q
b10100010000 I
b10100010000 l
b101100 P
b1100 R
b101 k
b1100 A
b1010 &
b1010 -
b1010 V
b1010 j
1(
#760000
0(
#770000
b1111111110111110 B
0.
b1000010 K
b1 ?
b1 ^
b10 2
b10 p
b1 U
b1 Z
b1 ]
b100001 J
b1 5
b1 g
b1 q
b10 3
b10 o
b1110 @
b1 Y
b1 W
b1 [
b100001 /
b100001 1
b100 7
b100 n
b10 8
b10 m
b1010001000010 O
b1010001000010 G
b1 f
b1110 Q
b101000100001 I
b101000100001 l
b10 '
b10 +
b10 T
b10 `
b10 e
b1010000 P
b1110 R
b110 k
b11 *
b11 6
b11 _
b11 r
b1110 A
b1100 &
b1100 -
b1100 V
b1100 j
1(
#780000
0(
#790000
1.
b1111111111111000 B
b1000 K
b0 ?
b0 ^
b0 2
b0 p
b0 3
b0 o
b100 U
b100 Z
b100 ]
b100 J
b0 5
b0 g
b0 q
04
1H
b0 9
b0 d
b0 f
b1000 @
b100 Y
b100 W
b100 [
b100 /
b100 1
b0 7
b0 n
b0 8
b0 m
b10 a
b1000 O
b1000 G
b0 '
b0 +
b0 T
b0 `
b0 e
b1000 Q
b100000000000100 I
b100000000000100 l
b0 *
b0 6
b0 _
b0 r
b11000 P
b10000 R
b111 k
b10000 A
b1110 &
b1110 -
b1110 V
b1110 j
b110100 %
b110100 >
b110100 s
1(
#800000
0(
#810000
b10 3
b10 o
b1111111111110110 B
0.
b1 f
b1010 K
b10 '
b10 +
b10 T
b10 `
b10 e
b11 2
b11 p
0,
b1010 @
b1 U
b1 Z
b1 ]
b101 J
b10 *
b10 6
b10 _
b10 r
1L
0H
b1 N
b1 X
b1 \
b1 b
b1010 Q
b10101 Y
b101 W
b101 [
b101 /
b101 1
b11 7
b11 n
b10 8
b10 m
b110 a
b1001100001010 O
b1001100001010 G
b1100100110000101 I
b1100100110000101 l
b10100 P
b1010 R
b100 k
b1010 A
b1000 &
b1000 -
b1000 V
b1000 j
b10 $
b10 =
b10 t
1(
#820000
0(
#830000
b110110 3
b110110 o
b1111111111100000 B
b11011 f
b100000 K
b10 ?
b10 ^
b110110 '
b110110 +
b110110 T
b110110 `
b110110 e
b1 2
b1 p
b0 U
b0 Z
b0 ]
b10000 J
b10 5
b10 g
b10 q
b110100 *
b110100 6
b110100 _
b110100 r
14
0L
b0 N
b0 X
b0 \
b0 b
b1 9
b1 d
b1100 @
b0 Y
b0 W
b0 [
b10000 /
b10000 1
b10 7
b10 n
b1 8
b1 m
b0 a
b101000100000 O
b101000100000 G
b1100 Q
b10100010000 I
b10100010000 l
b101100 P
b1100 R
b101 k
b1100 A
b1010 &
b1010 -
b1010 V
b1010 j
1(
#840000
0(
